<?xml version="1.0" encoding="utf-8"?>
<!-- Generator: Adobe Illustrator 15.1.0, SVG Export Plug-In . SVG Version: 6.00 Build 0)  -->
<!DOCTYPE svg PUBLIC "-//W3C//DTD SVG 1.1//EN" "http://www.w3.org/Graphics/SVG/1.1/DTD/svg11.dtd">
<svg version="1.1" id="Ebene_1" xmlns="http://www.w3.org/2000/svg" xmlns:xlink="http://www.w3.org/1999/xlink" x="0px" y="0px"
	 width="32.5px" height="40px" viewBox="0 0 32.5 40" enable-background="new 0 0 32.5 40" xml:space="preserve">
<g display="none">
	<defs>
		<rect id="SVGID_1_" x="-0.026" y="5.758" width="32.553" height="28.484"/>
	</defs>
	<clipPath id="SVGID_2_" display="inline">
		<use xlink:href="#SVGID_1_"  overflow="visible"/>
	</clipPath>
	<path display="inline" clip-path="url(#SVGID_2_)" fill="#8BC53F" d="M-0.026,5.758L-0.026,5.758v22.589c0,0,0,5.895,5.745,5.895
		h26.808V11.651c0,0,0-5.893-5.745-5.893H-0.026z"/>
	<path display="inline" clip-path="url(#SVGID_2_)" fill="#FFFFFF" d="M26.02,12.237H4.181v13.085c0,0,0,2.441,2.441,2.441h21.838
		V14.679C28.461,14.679,28.461,12.237,26.02,12.237z M23.056,25.769h-6.104v-1.222h6.104V25.769z M26.718,25.769h-2.29v-1.222h2.29
		V25.769z M27.125,17.02H5.558v-2.442h21.567V17.02z"/>
</g>
<g>
	<polygon fill="#8BC53F" points="23.635,8.92 32.5,17.785 30.999,9.769 	"/>
	<g>
		<defs>
			<rect id="SVGID_3_" y="8.572" width="32.5" height="22.855"/>
		</defs>
		<clipPath id="SVGID_4_">
			<use xlink:href="#SVGID_3_"  overflow="visible"/>
		</clipPath>
		<path clip-path="url(#SVGID_4_)" fill="#8BC53F" d="M27.768,18.529c0,1.053-0.857,1.911-1.918,1.911
			c-1.06,0-1.919-0.858-1.919-1.911c0-1.062,0.859-1.918,1.919-1.918C26.91,16.611,27.768,17.467,27.768,18.529"/>
		<path clip-path="url(#SVGID_4_)" fill="#8BC53F" d="M22.05,18.529c0,2.784-2.6,5.041-5.801,5.041c-3.2,0-5.798-2.257-5.798-5.041
			c0-2.792,2.598-5.05,5.798-5.05C19.45,13.479,22.05,15.737,22.05,18.529"/>
		<path clip-path="url(#SVGID_4_)" fill="#8BC53F" d="M8.562,18.529c0,1.053-0.851,1.911-1.911,1.911
			c-1.059,0-1.918-0.858-1.918-1.911c0-1.062,0.859-1.918,1.918-1.918C7.71,16.611,8.562,17.467,8.562,18.529"/>
	</g>
	<polygon fill="#8BC53F" points="0,8.92 0,17.785 8.864,8.92 	"/>
	<polygon fill="#8BC53F" points="1.888,27.566 8.864,28.127 0,19.264 	"/>
	<polyline fill="#8BC53F" points="23.635,28.127 32.5,28.127 32.5,19.264 	"/>
	<rect y="29.873" fill="#8BC53F" width="32.5" height="1.555"/>
	<g>
		<defs>
			<rect id="SVGID_5_" y="8.572" width="32.5" height="22.855"/>
		</defs>
		<clipPath id="SVGID_6_">
			<use xlink:href="#SVGID_5_"  overflow="visible"/>
		</clipPath>
		<path clip-path="url(#SVGID_6_)" fill="none" stroke="#8BC53F" stroke-width="1.5951" d="M0.798,9.37L0.798,9.37v16.314
			c0,0,0,1.994,1.993,1.994h28.912V11.364c0,0,0-1.994-1.994-1.994H0.798z"/>
		<path clip-path="url(#SVGID_6_)" fill="#FFFFFF" d="M14.972,18.696c-0.007-0.098-0.011-0.199-0.011-0.299
			c0-0.072,0.001-0.142,0.007-0.211h2.59l0.099-0.511h-2.623c0.097-0.444,0.27-0.796,0.518-1.059
			c0.292-0.302,0.664-0.454,1.119-0.454c0.446,0,0.843,0.119,1.191,0.358h0.059V15.8c-0.39-0.175-0.804-0.263-1.243-0.263
			c-0.671,0-1.221,0.201-1.651,0.607c-0.397,0.374-0.651,0.885-0.765,1.531h-0.307l-0.104,0.511h0.351
			c-0.002,0.07-0.003,0.139-0.003,0.211c0,0.1,0.003,0.201,0.012,0.299h-0.256l-0.104,0.511h0.422
			c0.121,0.617,0.371,1.102,0.75,1.454c0.419,0.39,0.967,0.586,1.643,0.586c0.417,0,0.835-0.087,1.254-0.26v-0.714h-0.052
			c-0.338,0.227-0.737,0.34-1.198,0.34c-0.429,0-0.788-0.138-1.073-0.414c-0.252-0.241-0.432-0.572-0.541-0.992h2.293l0.101-0.511
			H14.972z"/>
	</g>
</g>
</svg>
