<?xml version="1.0" encoding="utf-8"?>
<!-- Generator: Adobe Illustrator 15.1.0, SVG Export Plug-In . SVG Version: 6.00 Build 0)  -->
<!DOCTYPE svg PUBLIC "-//W3C//DTD SVG 1.1//EN" "http://www.w3.org/Graphics/SVG/1.1/DTD/svg11.dtd">
<svg version="1.1" id="Ebene_1" xmlns="http://www.w3.org/2000/svg" xmlns:xlink="http://www.w3.org/1999/xlink" x="0px" y="0px"
	 width="100px" height="100px" viewBox="0 0 100 100" enable-background="new 0 0 100 100" xml:space="preserve">
<path d="M79.835,40.727c-5.322,1.434-10.087-2.625-10.087-7.713c0-0.121,0.01-0.24,0.019-0.358l0.188-2.944l-2.694,0.726
	c-4.259,1.148-7.469,4.523-8.511,8.66c-2.413-1.361-5.195-2.139-8.15-2.139c-5.725,0-11.024,2.984-13.994,7.744
	c-1.4-0.508-2.841-0.765-4.304-0.765c-7.122,0-12.915,5.734-12.915,12.782c0,6.956,5.648,12.633,12.645,12.775l34.48,0.006
	c5.797,0,10.513-4.668,10.513-10.406c0-2.249-0.732-4.328-1.962-6.032c4.087-1.733,6.992-5.66,7.288-10.275l0.178-2.783
	L79.835,40.727z M66.71,65.497l-34.389-0.002l-0.155,0.001c-4.854-0.071-8.779-3.981-8.779-8.777c0-4.843,4-8.782,8.915-8.782
	c1.438,0,2.863,0.372,4.232,1.106l1.865,0.999l0.893-1.917c2.027-4.353,6.466-7.166,11.308-7.166c6.096,0,11.252,4.302,12.261,10.23
	l0.344,2.021l2.013-0.395c0.433-0.085,0.868-0.128,1.295-0.128c3.591,0,6.513,2.874,6.513,6.406
	C73.024,62.562,70.21,65.394,66.71,65.497z M71.49,49.932c-1.482-0.792-3.178-1.244-4.979-1.244c-0.043,0-0.085,0-0.128,0.001
	c-0.762-2.617-2.153-4.935-3.988-6.807c0.044-2.678,1.425-5.105,3.58-6.533c1.09,5.503,5.954,9.665,11.772,9.665
	c0.016,0,0.03,0,0.046,0C76.746,47.611,74.373,49.534,71.49,49.932z"/>
</svg>
