<?xml version="1.0" encoding="utf-8"?>
<!-- Generator: Adobe Illustrator 15.1.0, SVG Export Plug-In . SVG Version: 6.00 Build 0)  -->
<!DOCTYPE svg PUBLIC "-//W3C//DTD SVG 1.1//EN" "http://www.w3.org/Graphics/SVG/1.1/DTD/svg11.dtd">
<svg version="1.1" id="Ebene_1" xmlns="http://www.w3.org/2000/svg" xmlns:xlink="http://www.w3.org/1999/xlink" x="0px" y="0px"
	 width="25.659px" height="40.107px" viewBox="-0.267 -0.242 25.659 40.107" enable-background="new -0.267 -0.242 25.659 40.107"
	 xml:space="preserve">
<path fill="#8CC440" d="M10.569,9.257c0-0.916,0.715-1.466,2.219-1.466c1.182,0,4.051,0.325,4.051,0.325l0.223-2.218
	c0,0-2.705-0.55-4.557-0.55c-2.811,0-4.721,1.241-4.721,4.109c0,2.22,1.18,3.276,4.293,4.172c1.992,0.568,2.48,0.957,2.48,1.812
	c0,1.078-0.648,1.79-2.157,1.79c-1.443,0-4.172-0.365-4.172-0.365l-0.283,2.177c0,0,2.727,0.632,4.617,0.632
	c2.729,0,4.78-1.403,4.78-4.416c0-2.299-0.916-3.134-3.904-4.09C11.12,10.438,10.569,10.132,10.569,9.257 M22.013,12.737
	c0,5.219-4.229,9.449-9.447,9.449c-5.221,0-9.448-4.23-9.448-9.449c0-5.22,4.229-9.447,9.448-9.447
	C17.782,3.288,22.013,7.518,22.013,12.737 M24.999,12.097c0-4.598-3.352-11.801-12.436-11.907C3.48,0.295,0.127,7.499,0.127,12.097
	c0,6.061,1.879,8.566,7.104,17.969c2,3.604,5.332,9.609,5.332,9.609s3.325-6.218,5.325-9.818
	C23.11,20.453,24.999,18.155,24.999,12.097"/>
<g id="Ebene_1_1_" display="none">
	<g display="inline">
		<g>
			<g>
				<g>
					<defs>
						<rect id="SVGID_1_" x="0.012" y="5.792" width="32.476" height="28.416"/>
					</defs>
					<clipPath id="SVGID_2_">
						<use xlink:href="#SVGID_1_"  overflow="visible"/>
					</clipPath>
					<path clip-path="url(#SVGID_2_)" fill="#8BC53F" d="M26.757,5.792H0.012v22.537c0,0,0,5.879,5.731,5.879h26.745V11.671
						C32.488,11.671,32.488,5.792,26.757,5.792z M27.332,28.449H5.168v-4.062h22.164V28.449z M27.332,22.03H5.168V17.97h22.164
						V22.03z M27.332,15.611H5.168V11.55h22.164V15.611z"/>
				</g>
			</g>
		</g>
	</g>
	<g display="inline">
		<g>
			<g>
				<g>
					<defs>
						<rect id="SVGID_3_" x="3.804" y="0.239" width="24.891" height="39.52"/>
					</defs>
					<clipPath id="SVGID_4_">
						<use xlink:href="#SVGID_3_"  overflow="visible"/>
					</clipPath>
					<path clip-path="url(#SVGID_4_)" fill="#8CC440" d="M28.695,12.157c0-4.602-3.355-11.81-12.445-11.918
						C7.159,0.347,3.804,7.555,3.804,12.157c0,6.062,1.882,8.572,7.109,17.982c2.003,3.604,5.336,9.617,5.336,9.617
						s3.324-6.224,5.327-9.826C26.805,20.521,28.695,18.221,28.695,12.157"/>
				</g>
			</g>
		</g>
		<g>
			<g>
				<g>
					<defs>
						<rect id="SVGID_5_" x="3.804" y="0.239" width="24.891" height="39.52"/>
					</defs>
					<clipPath id="SVGID_6_">
						<use xlink:href="#SVGID_5_"  overflow="visible"/>
					</clipPath>
					<path clip-path="url(#SVGID_6_)" fill="#FFFFFF" d="M16.25,22.254c5.225,0,9.456-4.234,9.456-9.457
						c0-5.223-4.231-9.456-9.456-9.456c-5.222,0-9.457,4.233-9.457,9.456C6.793,18.02,11.028,22.254,16.25,22.254"/>
				</g>
			</g>
		</g>
		<g>
			<g>
				<g>
					<defs>
						<rect id="SVGID_7_" x="3.804" y="0.239" width="24.891" height="39.52"/>
					</defs>
					<clipPath id="SVGID_8_">
						<use xlink:href="#SVGID_7_"  overflow="visible"/>
					</clipPath>
					<path clip-path="url(#SVGID_8_)" fill="#8CC440" d="M18.311,17.607h1.935v-3.36h3.388v-1.681h-3.388v-2.8h4.146v-1.68h-6.078
						v9.521H18.311z M14.498,8.296c0,0-1.861-0.378-3.136-0.378c-1.932,0-3.249,0.854-3.249,2.828c0,1.526,0.812,2.254,2.955,2.871
						c1.372,0.391,1.708,0.656,1.708,1.246c0,0.742-0.448,1.231-1.484,1.231c-0.994,0-2.87-0.253-2.87-0.253L8.226,17.34
						c0,0,1.876,0.435,3.179,0.435c1.875,0,3.291-0.967,3.291-3.039c0-1.582-0.631-2.156-2.688-2.814
						c-1.596-0.504-1.974-0.714-1.974-1.316c0-0.629,0.49-1.007,1.526-1.007c0.812,0,2.787,0.224,2.787,0.224L14.498,8.296z"/>
				</g>
			</g>
		</g>
	</g>
	<polygon display="inline" fill="#8CC440" points="14.794,12.732 14.794,12.732 14.794,13.784 18.122,13.784 18.122,12.732 	"/>
	<polygon display="inline" fill="#8CC440" points="15.934,14.923 15.934,14.923 16.982,14.923 16.982,11.595 15.934,11.595 	"/>
	<g display="inline">
		<g>
			<g>
				<g>
					<defs>
						<rect id="SVGID_9_" x="3.871" y="0.227" width="24.758" height="39.309"/>
					</defs>
					<clipPath id="SVGID_10_">
						<use xlink:href="#SVGID_9_"  overflow="visible"/>
					</clipPath>
					<path clip-path="url(#SVGID_10_)" fill="#8CC440" d="M28.629,12.081c0-4.576-3.338-11.747-12.38-11.854
						C7.208,0.334,3.871,7.504,3.871,12.081c0,6.03,1.872,8.527,7.071,17.886c1.992,3.589,5.307,9.568,5.307,9.568
						s3.308-6.19,5.3-9.775C26.749,20.4,28.629,18.111,28.629,12.081"/>
				</g>
			</g>
		</g>
		<g>
			<g>
				<g>
					<defs>
						<rect id="SVGID_11_" x="3.871" y="0.227" width="24.758" height="39.309"/>
					</defs>
					<clipPath id="SVGID_12_">
						<use xlink:href="#SVGID_11_"  overflow="visible"/>
					</clipPath>
					<path clip-path="url(#SVGID_12_)" fill="#FFFFFF" d="M16.249,22.124c5.194,0,9.405-4.211,9.405-9.406
						c0-5.194-4.211-9.405-9.405-9.405c-5.194,0-9.405,4.211-9.405,9.405C6.844,17.913,11.055,22.124,16.249,22.124"/>
				</g>
			</g>
		</g>
		<g>
			<g>
				<g>
					<defs>
						<rect id="SVGID_13_" x="3.871" y="0.227" width="24.758" height="39.309"/>
					</defs>
					<clipPath id="SVGID_14_">
						<use xlink:href="#SVGID_13_"  overflow="visible"/>
					</clipPath>
					<path clip-path="url(#SVGID_14_)" fill="#8CC440" d="M18.46,18.309h2.349v-4.086h4.118V12.18h-4.118V8.775h5.039V6.733H18.46
						V18.309z M14.438,6.989c0,0-2.265-0.459-3.813-0.459c-2.349,0-3.949,1.038-3.949,3.438c0,1.855,0.987,2.741,3.592,3.489
						c1.667,0.477,2.076,0.8,2.076,1.514c0,0.902-0.544,1.498-1.805,1.498c-1.208,0-3.489-0.306-3.489-0.306l-0.238,1.819
						c0,0,2.281,0.528,3.864,0.528c2.28,0,3.999-1.175,3.999-3.694c0-1.922-0.766-2.622-3.268-3.42c-1.94-0.612-2.4-0.868-2.4-1.6
						c0-0.766,0.595-1.226,1.855-1.226c0.987,0,3.387,0.272,3.387,0.272L14.438,6.989z"/>
				</g>
			</g>
		</g>
	</g>
	<polygon display="inline" fill="#8CC440" points="14,11.519 14,11.519 14,12.988 18.648,12.988 18.648,11.519 	"/>
	<polygon display="inline" fill="#8CC440" points="15.59,14.579 15.59,14.579 17.061,14.579 17.061,9.929 15.59,9.929 	"/>
</g>
<g>
	<defs>
		<path id="SVGID_15_" d="M25.125,12.018c0-4.645-3.389-11.921-12.562-12.031C3.387,0.096,0,7.374,0,12.018
			c0,6.121,1.899,8.653,7.175,18.151c2.022,3.641,5.388,9.709,5.388,9.709s3.354-6.281,5.379-9.92
			C23.217,20.46,25.125,18.138,25.125,12.018"/>
	</defs>
	<clipPath id="SVGID_16_">
		<use xlink:href="#SVGID_15_"  overflow="visible"/>
	</clipPath>
	<path clip-path="url(#SVGID_16_)" fill="none" stroke="#4D4D4D" stroke-width="3" stroke-miterlimit="10" d="M25.125,12.018
		c0-4.645-3.389-11.921-12.562-12.031C3.388,0.096,0,7.374,0,12.018c0,6.121,1.899,8.653,7.175,18.151
		c2.022,3.641,5.388,9.709,5.388,9.709s3.354-6.281,5.379-9.92C23.217,20.46,25.125,18.138,25.125,12.018"/>
</g>
</svg>
