<?xml version="1.0" encoding="iso-8859-1"?>
<!-- Generator: Adobe Illustrator 19.0.0, SVG Export Plug-In . SVG Version: 6.00 Build 0)  -->
<svg version="1.1" id="Capa_1" xmlns="http://www.w3.org/2000/svg" xmlns:xlink="http://www.w3.org/1999/xlink" x="0px" y="0px"
	 viewBox="0 0 512 512" style="enable-background:new 0 0 512 512;" xml:space="preserve">
<g>
	<g>
		<path d="M228.026,226.677c-2.871-1.129-6.246-0.38-8.345,1.88l-15.91,17.086l-16.029-17.107c-2.104-2.25-5.251-2.985-8.114-1.853
			c-2.864,1.13-4.628,3.896-4.628,6.976v44.178c0,4.143,3.358,7.5,7.5,7.5c4.142,0,7.5-3.357,7.5-7.5v-25.181l8.393,8.914
			c1.418,1.517,3.271,2.178,5.346,2.178c0.005,0,0.01,0,0.015,0c2.082,0,4.282-0.674,5.698-2.199l8.549-8.781v25.069
			c-0.001,4.142,3.357,7.499,7.499,7.499c4.142,0,7.5-3.357,7.5-7.5v-44.178C233,230.573,230.897,227.803,228.026,226.677z"/>
	</g>
</g>
<g>
	<g>
		<path d="M249.5,226.159c-4.142,0-7.5,3.357-7.5,7.5v44.178c0,4.143,3.358,7.5,7.5,7.5c4.142,0,7.5-3.357,7.5-7.5v-44.178
			C257,229.516,253.642,226.159,249.5,226.159z"/>
	</g>
</g>
<g>
	<g>
		<path d="M329.5,226.159c-4.142,0-7.5,3.357-7.5,7.5v44.178c0,4.143,3.358,7.5,7.5,7.5c4.142,0,7.5-3.357,7.5-7.5v-44.178
			C337,229.516,333.642,226.159,329.5,226.159z"/>
	</g>
</g>
<g>
	<g>
		<path d="M305.501,226.158c-4.142,0-7.501,3.357-7.501,7.5v20.472l-17.605-24.785c-1.881-2.677-5.162-3.823-8.277-2.837
			c-3.118,0.986-5.117,3.88-5.117,7.15v44.178c0,4.143,3.358,7.5,7.5,7.5c4.142,0,7.5-3.357,7.5-7.5v-20.472l17.217,24.785
			c1.431,2.036,3.635,3.188,6.031,3.188c0.753,0,1.642-0.114,2.388-0.351c3.118-0.986,5.364-3.88,5.364-7.15v-44.178
			C313.001,229.515,309.643,226.158,305.501,226.158z"/>
	</g>
</g>
<g>
	<g>
		<path d="M504.5,195.748H368.292c-21.555-40-63.802-67.145-112.287-67.145c-48.48,0-90.724,27.145-112.281,67.145H7.5
			c-4.142,0-7.5,3.357-7.5,7.5s3.358,7.5,7.5,7.5h129.352c-2.54,6-4.539,13-5.942,20H42.37c-4.142,0-7.5,3.357-7.5,7.5
			s3.358,7.5,7.5,7.5h86.375c-0.241,4-0.302,6.562-0.302,9.815c0,3.72,0.232,7.185,0.546,11.185H77.24c-4.142,0-7.5,3.357-7.5,7.5
			s3.358,7.5,7.5,7.5h53.943c1.261,6,2.95,12,5.039,18H115.94c-4.142,0-7.5,3.357-7.5,7.5s3.358,7.5,7.5,7.5h26.908
			c21.273,41,64.01,68.65,113.158,68.65c24.234,0,47.813-6.903,68.188-19.822c3.498-2.218,4.536-6.889,2.318-10.388
			c-2.218-3.497-6.851-4.554-10.35-2.336c-17.968,11.393-38.77,17.406-60.155,17.406c-62.033,0-112.5-50.472-112.5-112.504
			s50.467-112.502,112.5-112.502s112.5,50.466,112.5,112.499c0,28.386-10.602,55.493-29.853,76.328
			c-2.811,3.042-2.624,7.787,0.418,10.599s7.788,2.768,10.598-0.274c7.801-8.442,14.341-17.653,19.535-27.653h26.856
			c4.142,0,7.5-3.357,7.5-7.5s-3.358-7.5-7.5-7.5h-20.25c2.094-6,3.768-12,5.017-18h53.933c4.142,0,7.5-3.357,7.5-7.5
			s-3.358-7.5-7.5-7.5h-51.737c0.316-4,0.483-7.496,0.483-11.205c0-3.246-0.124-5.795-0.363-9.795h86.487c4.142,0,7.5-3.357,7.5-7.5
			s-3.358-7.5-7.5-7.5h-88.524c-1.402-7-3.401-14-5.942-20H504.5c4.142,0,7.5-3.357,7.5-7.5S508.642,195.748,504.5,195.748z"/>
	</g>
</g>
<g>
</g>
<g>
</g>
<g>
</g>
<g>
</g>
<g>
</g>
<g>
</g>
<g>
</g>
<g>
</g>
<g>
</g>
<g>
</g>
<g>
</g>
<g>
</g>
<g>
</g>
<g>
</g>
<g>
</g>
</svg>
